{
    "name": [
        "Roquefort",
        "Camembert",
        "Cotija",
        "Feta",
        "Mozzarella",
        "Emmental",
        "Gouda",
        "Taleggio",
        "Parmigiano-Reggiano",
        "Manchego",
        "Cheddar",
        "Monterey Jack"
    ],
    "short": [
        "Caerphilly pepper jack boursin.",
        "Paneer mascarpone edam cheese and wine",
        "Fondue fromage feta",
        "Port-salut cheesy grin rubber cheese",
        "Jarlsberg caerphilly",
        "Lancashire fromage frais",
        "Cow everyone loves mozzarella"
    ],
    "medium": [
        "Cottage cheese bocconcini squirty cheese cheese and wine stinking bishop brie ricotta airedale",
        "Roquefort blue castello cheesy feet rubber cheese bocconcini mascarpone cheese slices dolcelatte",
        "Fromage emmental rubber cheese danish fontina cheese strings babybel hard cheese danish fontina",
        "Cheddar cheese strings edam who moved my cheese melted cheese fromage rubber cheese feta",
        "Cheese strings stilton gouda cow bavarian bergkase roquefort melted cheese ricotta",
        "Stilton edam airedale bocconcini blue castello cheeseburger mascarpone cheesy feet"
    ],
    "long": [
        "Stilton edam fromage cheese and biscuits hard cheese edam melted cheese when the cheese comes out everybody's happy.",
        "Cottage cheese boursin brie cheesy feet lancashire who moved my cheese monterey jack melted cheese.",
        "Cut the cheese cheese strings jarlsberg cheese triangles macaroni cheese everyone loves blue castello cottage cheese",
        "Paneer parmesan cut the cheese monterey jack taleggio croque monsieur cottage cheese who moved my cheese",
        "Cheesecake babybel fromage frais cheese on toast melted cheese the big cheese squirty cheese croque monsieur",
        "Danish fontina monterey jack mascarpone swiss pepper jack pepper jack lancashire who moved my cheese"
    ]
}